<?xml version="1.0" encoding="utf-8"?>
<!-- Generator: Adobe Illustrator 21.1.0, SVG Export Plug-In . SVG Version: 6.00 Build 0)  -->
<!DOCTYPE svg PUBLIC "-//W3C//DTD SVG 1.1//EN" "http://www.w3.org/Graphics/SVG/1.1/DTD/svg11.dtd">
<svg version="1.1" id="Layer_1" xmlns="http://www.w3.org/2000/svg" xmlns:xlink="http://www.w3.org/1999/xlink" x="0px" y="0px"
	 viewBox="0 0 448 448" style="enable-background:new 0 0 448 448;" xml:space="preserve">
<style type="text/css">
	.st0{fill:#7DBD42;}
	.st1{fill:#4C4F56;}
	.st2{fill:#FFFFFF;}
</style>
<g>
	<g>
		<g>
			<path class="st0" d="M43.2,391.8c-1.7,0-10.7-0.4-19.3-8.2c-8.2-7.5-18.2-23.9-18.2-59.4c0-57.1-0.1-145.3-0.3-171v-13.3h73.5
				V324c0,36.8-9,53.2-16.7,60.4c-3.7,3.6-7.6,5.4-10.6,6.2l-0.3,0.6l-2.6,0.3l-2.8,0.1h-2.8V391.8z"/>
		</g>
	</g>
	<g>
		<path class="st1" d="M440.1,50.1c4.3,0,7.9,3.5,7.9,7.9v260.2c0,43.9-35.7,79.6-79.6,79.6h-320c-0.4,0-1,0-1.2,0
			c-0.3,0-0.6,0-0.7,0h-0.3H46h-0.1c-0.3,0-0.4,0-0.7,0c-4,0-14.4-1-24.4-10c-13.5-12.2-20.4-34-20.4-64.6
			C0.3,254.8,0,141.2,0,140.1c0-2.1,0.8-4,2.4-5.6c1.5-1.5,3.5-2.4,5.6-2.4h33.7v15.7H20.3h-4.4v4.4c0,25.7,0.3,113.9,0.3,171
			c0,32.4,8.3,46.5,15.3,52.9c6.4,5.8,13.1,6,13.3,6h2.6l0,0h1.1h0.4l0.4-0.1c2.1-0.4,5.1-1.5,8.3-4.6c6.4-6.1,13.9-20.4,13.9-54
			V140.1V58c0-4.3,3.5-7.9,7.9-7.9L440.1,50.1L440.1,50.1z"/>
	</g>
	<g>
		<path class="st0" d="M368.4,382H74.7l3.2-6.4c6.4-12.6,9.6-30.3,9.6-52.4V66h344.8v252.3C432.2,353.4,403.6,382,368.4,382z"/>
	</g>
	<g>
		<rect x="129.3" y="117.5" class="st2" width="127.9" height="84.7"/>
		<path class="st1" d="M257.2,208.9H129.3c-3.6,0-6.7-2.9-6.7-6.7v-84.7c0-3.6,2.9-6.7,6.7-6.7h127.9c3.6,0,6.7,2.9,6.7,6.7v84.7
			C263.9,205.8,260.8,208.9,257.2,208.9z M136,195.5h114.6V124H136V195.5z"/>
	</g>
	<path class="st1" d="M390.6,295.1H129.3c-3.6,0-6.7-2.9-6.7-6.7c0-3.6,2.9-6.7,6.7-6.7h261.4c3.6,0,6.7,2.9,6.7,6.7
		C397.2,292,394.3,295.1,390.6,295.1z"/>
	<path class="st1" d="M390.6,251.9H129.3c-3.6,0-6.7-2.9-6.7-6.7c0-3.6,2.9-6.7,6.7-6.7h261.4c3.6,0,6.7,2.9,6.7,6.7
		C397.2,249,394.3,251.9,390.6,251.9z"/>
	<path class="st1" d="M300.4,338.2H129.3c-3.6,0-6.7-2.9-6.7-6.7c0-3.6,2.9-6.7,6.7-6.7h171.1c3.6,0,6.7,2.9,6.7,6.7
		S304.1,338.2,300.4,338.2z"/>
	<path class="st1" d="M391.3,186.9h-88.2c-3.6,0-6.7-2.9-6.7-6.7c0-3.6,2.9-6.7,6.7-6.7h88.2c3.6,0,6.7,2.9,6.7,6.7
		C397.9,184,395,186.9,391.3,186.9z"/>
	<path class="st1" d="M391.3,143.9h-88.2c-3.6,0-6.7-2.9-6.7-6.7c0-3.6,2.9-6.7,6.7-6.7h88.2c3.6,0,6.7,2.9,6.7,6.7
		C397.9,141,395,143.9,391.3,143.9z"/>
</g>
</svg>
