<?xml version="1.0" encoding="utf-8"?>
<!-- Generator: Adobe Illustrator 19.2.1, SVG Export Plug-In . SVG Version: 6.00 Build 0)  -->
<!DOCTYPE svg PUBLIC "-//W3C//DTD SVG 1.1//EN" "http://www.w3.org/Graphics/SVG/1.1/DTD/svg11.dtd">
<svg version="1.1" id="Layer_1" xmlns="http://www.w3.org/2000/svg" xmlns:xlink="http://www.w3.org/1999/xlink" x="0px" y="0px"
	 viewBox="0 0 448 448" style="enable-background:new 0 0 448 448;" xml:space="preserve">
<style type="text/css">
	.st0{fill:#C8102E;}
</style>
<path class="st0" d="M438.7,93.7L438.7,93.7c-12.4-12.9-32.6-12.9-45,0L224,270.3L54.3,93.7c-12.4-12.9-32.6-12.9-45,0l0,0
	c-12.4,12.9-12.4,33.9,0,46.8L224,364l214.7-223.5C451.1,127.6,451.1,106.6,438.7,93.7z"/>
</svg>
